%YAML 1.1
%TAG !u! tag:unity3d.com,2011:
--- !u!21 &2100000
Material:
  serializedVersion: 6
  m_ObjectHideFlags: 0
  m_CorrespondingSourceObject: {fileID: 0}
  m_PrefabInstance: {fileID: 0}
  m_PrefabAsset: {fileID: 0}
  m_Name: Blockout_Theme_2_Trim_Tri
  m_Shader: {fileID: 4800000, guid: a8089c39006d76944aebbd1016c83c21, type: 3}
  m_ShaderKeywords: 
  m_LightmapFlags: 4
  m_EnableInstancingVariants: 1
  m_DoubleSidedGI: 0
  m_CustomRenderQueue: -1
  stringTagMap: {}
  disabledShaderPasses: []
  m_SavedProperties:
    serializedVersion: 3
    m_TexEnvs:
    - _Texture:
        m_Texture: {fileID: 2800000, guid: 6df3b52f61acc9e458f9e2874624580d, type: 3}
        m_Scale: {x: 1, y: 1}
        m_Offset: {x: 0, y: 0}
    - _Textured:
        m_Texture: {fileID: 0}
        m_Scale: {x: 1, y: 1}
        m_Offset: {x: 0, y: 0}
    m_Floats:
    - _Drop_Value: 0.5
    - _Gloss: 0.227
    - _Locked_Drop: 0.7
    - _Metalic: 0.087
    - _Metallic: 0.087
    - __dirty: 0
    m_Colors:
    - _Color: {r: 0.77254903, g: 0.92156863, b: 0.7647059, a: 1}
  m_BuildTextureStacks: []
